{
  "rules": {
    ".read": "auth!=null",
    "$chatroom": {
      "message": {
        "$data": {
          ".write": "newData.parent().parent().hasChild('member/' + auth.token.email.replace('@', '_').replace('.', '_'))"
        }
      },
      "member": {
        "$user": {
          ".write": "newData.parent().child(auth.token.email.replace('@', '_').replace('.', '_')).child('authority').val() === 'owner'"
        }
      }
    }
  }
}
